What the Package Does (One Line, Title Case) • bbsTaiwan
…
bbs_fetch() fetch the cleaned version of Taiwan BBS cccurrence data by species

bbs_plotmap() visualize species distribution across all BBS sites

bbs_history() examine the number of BBS sites surveyed each year

bbs_sites() return the coordinates of sll BBS sites

Usage 💡

library(bbsTaiwan)

## Get data for species of interest
bbs_fetch(c("白頭翁", "烏頭翁"))
#> # A tibble: 92,475 × 16
#>     year month   day site   locationID decimalLatitude decimalLongitude weather
#>    <dbl> <dbl> <dbl> <chr>  <chr>                <dbl>            <dbl> <chr>  
#>  1  2009     3    10 A02-01 A02-01_01             25.1             122. <NA>   
#>  2  2009     3    10 A02-01 A02-01_01             25.1             122. <NA>   
#>  3  2009     4     5 A02-01 A02-01_01             25.1             122. <NA>   
#>  4  2009     4    26 A02-01 A02-01_01             25.1             122. <NA>   
#>  5  2009     3    10 A02-01 A02-01_01             25.1             122. <NA>   
#>  6  2009     4    26 A02-01 A02-01_01             25.1             122. <NA>   
#>  7  2009     4     5 A02-01 A02-01_01             25.1             122. <NA>   
#>  8  2009     4    26 A02-01 A02-01_02             25.1             122. <NA>   
#>  9  2009     3    10 A02-01 A02-01_02             25.1             122. <NA>   
#> 10  2009     4     5 A02-01 A02-01_02             25.1             122. <NA>   
#> # ℹ 92,465 more rows
#> # ℹ 8 more variables: wind <chr>, habitat <chr>, scientificName <chr>,
#> #   vernacularName <chr>, individualCount <dbl>, time_slot <chr>,
#> #   distance <chr>, flock <chr>
…
