…
``` r
bird_data <- bbs_fetch(target_species = c("Pycnonotus sinensis", "Pycnonotus taivanus"),
                       y_min = 2011,
                       y_max = 2016)
#> Joining with `by = join_by(locationID)`
```

The output from `bbs_fetch` is a list, with first element as a tibble,
showing all the observations for the target species within selected year
range

``` r
bird_data$occurrence
#> # A tibble: 35,258 × 21
#>     year eventID      occurrenceID scientificName vernacularName individualCount
#>    <dbl> <chr>        <chr>        <chr>          <chr>                    <dbl>
#>  1  2011 TWBBS_2011_… TWBBS_2011_… Pycnonotus si… 白頭翁                       5
#>  2  2011 TWBBS_2011_… TWBBS_2011_… Pycnonotus si… 白頭翁                       1
#>  3  2011 TWBBS_2011_… TWBBS_2011_… Pycnonotus si… 白頭翁                       1
#>  4  2011 TWBBS_2011_… TWBBS_2011_… Pycnonotus si… 白頭翁                       1
#>  5  2011 TWBBS_2011_… TWBBS_2011_… Pycnonotus si… 白頭翁                       2
#>  6  2011 TWBBS_2011_… TWBBS_2011_… Pycnonotus si… 白頭翁                       1
#>  7  2011 TWBBS_2011_… TWBBS_2011_… Pycnonotus si… 白頭翁                       2
#>  8  2011 TWBBS_2011_… TWBBS_2011_… Pycnonotus si… 白頭翁                       3
#>  9  2011 TWBBS_2011_… TWBBS_2011_… Pycnonotus si… 白頭翁                       1
#> 10  2011 TWBBS_2011_… TWBBS_2011_… Pycnonotus si… 白頭翁                       3
#> # ℹ 35,248 more rows
#> # ℹ 15 more variables: eventDate <date>, eventTime <chr>, weather <chr>,
#> #   wind <chr>, habitat <chr>, time_slot <chr>, distance <chr>, flock <chr>,
#> #   site <chr>, plot <chr>, locationID <chr>, locality <chr>,
#> #   decimalLatitude <dbl>, decimalLongitude <dbl>, elev <dbl>
```

The second element is a tibble including all the BBS site info within
selected year range.

``` r
bird_data$site_info
#> # A tibble: 4,160 × 7
#>    site   plot  locationID locality   decimalLatitude decimalLongitude  elev
#>    <chr>  <chr> <chr>      <chr>                <dbl>            <dbl> <dbl>
#>  1 A02-01 01    A02-01_01  台北縣瑞芳            25.1             122.  109.
#>  2 A02-01 02    A02-01_02  台北縣瑞芳            25.1             122.  105.
#>  3 A02-01 03    A02-01_03  台北縣瑞芳            25.1             122.  105.
#>  4 A02-01 04    A02-01_04  台北縣瑞芳            25.1             122.  105.
#>  5 A02-01 05    A02-01_05  台北縣瑞芳            25.1             122.  105.
#>  6 A02-01 06    A02-01_06  台北縣瑞芳            25.1             122.  105.
#>  7 A02-01 07    A02-01_07  台北縣瑞芳            25.1             122.  105.
#>  8 A02-01 08    A02-01_08  台北縣瑞芳            25.1             122.  105.
#>  9 A02-01 09    A02-01_09  台北縣瑞芳            25.1             122.  154.
#> 10 A02-01 10    A02-01_10  台北縣瑞芳            25.1             122.  154.
#> # ℹ 4,150 more rows
```
…
