Return the Coordinates of All BBS Sites — bbs_sites • bbsTaiwan
…
bbs_sites()

    Valor

    A tibble including the coordinates of all BBS survey sites, in WGS84.

    Detalles

    The source data comes from the event table in the GBIF dataset.

    Ejemplos

bbs_sites()
#> # A tibble: 4,160 × 20
#>    id      eventID parentEventID samplingProtocol sampleSizeValue sampleSizeUnit
#>    <chr>   <chr>   <chr>         <chr>                      <dbl> <chr>         
#>  1 TWBBS_… TWBBS_… TWBBS_2009_A… Point count               31416. square metre  
#>  2 TWBBS_… TWBBS_… TWBBS_2009_A… Point count               31416. square metre  
#>  3 TWBBS_… TWBBS_… TWBBS_2009_A… Point count               31416. square metre  
#>  4 TWBBS_… TWBBS_… TWBBS_2009_A… Point count               31416. square metre  
#>  5 TWBBS_… TWBBS_… TWBBS_2009_A… Point count               31416. square metre  
#>  6 TWBBS_… TWBBS_… TWBBS_2009_A… Point count               31416. square metre  
#>  7 TWBBS_… TWBBS_… TWBBS_2009_A… Point count               31416. square metre  
#>  8 TWBBS_… TWBBS_… TWBBS_2009_A… Point count               31416. square metre  
#>  9 TWBBS_… TWBBS_… TWBBS_2009_A… Point count               31416. square metre  
#> 10 TWBBS_… TWBBS_… TWBBS_2009_A… Point count               31416. square metre  
#> # ℹ 4,150 more rows
#> # ℹ 14 more variables: samplingEffort <chr>, eventDate <date>, eventTime <chr>,
#> #   locationID <chr>, country <chr>, countryCode <chr>, locality <chr>,
#> #   decimalLatitude <dbl>, decimalLongitude <dbl>, geodeticDatum <chr>,
#> #   coordinateUncertaintyInMeters <dbl>, coordinatePrecision <dbl>, site <chr>,
#> #   plot <chr>
…
