Fetch BBS Occurrence Data by Species — bbs_fetch • bbsTaiwan
…
    Valor

    A tibble containing the species occurrence data.

    Ejemplos

bbs_fetch(target_species = c("Pycnonotus taivanus", "Pycnonotus sinensis"))
#> # A tibble: 92,475 × 16
#>     year month   day site   locationID decimalLatitude decimalLongitude weather
#>    <dbl> <dbl> <dbl> <chr>  <chr>                <dbl>            <dbl> <chr>  
#>  1  2009     3    10 A02-01 A02-01_01             25.1             122. NA     
#>  2  2009     3    10 A02-01 A02-01_01             25.1             122. NA     
#>  3  2009     4     5 A02-01 A02-01_01             25.1             122. NA     
#>  4  2009     4    26 A02-01 A02-01_01             25.1             122. NA     
#>  5  2009     3    10 A02-01 A02-01_01             25.1             122. NA     
#>  6  2009     4    26 A02-01 A02-01_01             25.1             122. NA     
#>  7  2009     4     5 A02-01 A02-01_01             25.1             122. NA     
#>  8  2009     4    26 A02-01 A02-01_02             25.1             122. NA     
#>  9  2009     3    10 A02-01 A02-01_02             25.1             122. NA     
#> 10  2009     4     5 A02-01 A02-01_02             25.1             122. NA     
#> # ℹ 92,465 more rows
#> # ℹ 8 more variables: wind <chr>, habitat <chr>, scientificName <chr>,
#> #   vernacularName <chr>, individualCount <dbl>, time_slot <chr>,
#> #   distance <chr>, flock <chr>
…
