bbsTaiwan • bbsTaiwan
…
bbs_history(type = "table")
#> # A tibble: 8 × 6
#>   year   East Mountain North  West Others
#>   <chr> <int>    <int> <int> <int>  <int>
#> 1 2009     31       41    24    52      0
#> 2 2010     30       26    25    57      2
#> 3 2011     24       37    55   134      3
#> 4 2012     31       47    88   142      3
#> 5 2013     28       43    80   138      2
#> 6 2014     36       46    91   118      2
#> 7 2015     36       49   112   143     12
#> 8 2016     38       42    98   157      2
bbs_sites()
#> # A tibble: 4,160 × 6
#>    site   plot  locationID locality   decimalLatitude decimalLongitude
#>    <chr>  <chr> <chr>      <chr>                <dbl>            <dbl>
#>  1 A02-01 01    A02-01_01  台北縣瑞芳            25.1             122.
#>  2 A02-01 02    A02-01_02  台北縣瑞芳            25.1             122.
#>  3 A02-01 03    A02-01_03  台北縣瑞芳            25.1             122.
#>  4 A02-01 04    A02-01_04  台北縣瑞芳            25.1             122.
#>  5 A02-01 05    A02-01_05  台北縣瑞芳            25.1             122.
#>  6 A02-01 06    A02-01_06  台北縣瑞芳            25.1             122.
#>  7 A02-01 07    A02-01_07  台北縣瑞芳            25.1             122.
#>  8 A02-01 08    A02-01_08  台北縣瑞芳            25.1             122.
#>  9 A02-01 09    A02-01_09  台北縣瑞芳            25.1             122.
#> 10 A02-01 10    A02-01_10  台北縣瑞芳            25.1             122.
#> # ℹ 4,150 more rows
…
Zero Fill: Converts implicit missing values into
explicit ones by filling in zeros for trips where the target species was
not observed. Specifically, if a plot was visited during a particular
year or trip but the target species was not observed, the species count
will show a value of 0 for that row.

# Here is a list of the 32 endemic bird species in Taiwan, where the species name can be used as the input of the function.
# 
# c("黑長尾雉", "白眉林鴝", "黃腹琉璃", "灰鷽", "小翼鶇", "白頭鶇", "赤腹山雀", "台灣竹雞", "繡眼畫眉", "台灣朱雀", "棕噪眉", "褐頭花翼", "台灣鷦眉", "小彎嘴", "大彎嘴", "台灣白喉噪眉", "台灣畫眉", "五色鳥", "台灣叢樹鶯", "火冠戴菊鳥", "烏頭翁", "台灣紫嘯鶇", "栗背林鴝", "黃山雀", "台灣藍鵲", "黃胸藪眉", "紋翼畫眉", "冠羽畫眉", "台灣噪眉", "白耳畫眉", "台灣山鷓鴣", "藍腹鷴")

bbs_fetch(target_species = "白頭翁")
#> # A tibble: 53,874 × 16
#>     year month   day site   locationID decimalLatitude decimalLongitude weather
#>    <dbl> <dbl> <dbl> <chr>  <chr>                <dbl>            <dbl> <chr>  
#>  1  2009     3    10 A02-01 A02-01_01             25.1             122. NA     
#>  2  2009     3    10 A02-01 A02-01_01             25.1             122. NA     
#>  3  2009     4     5 A02-01 A02-01_01             25.1             122. NA     
#>  4  2009     4    26 A02-01 A02-01_01             25.1             122. NA     
#>  5  2009     3    10 A02-01 A02-01_01             25.1             122. NA     
#>  6  2009     4    26 A02-01 A02-01_01             25.1             122. NA     
#>  7  2009     4     5 A02-01 A02-01_01             25.1             122. NA     
#>  8  2009     4    26 A02-01 A02-01_02             25.1             122. NA     
#>  9  2009     3    10 A02-01 A02-01_02             25.1             122. NA     
#> 10  2009     4     5 A02-01 A02-01_02             25.1             122. NA     
#> # ℹ 53,864 more rows
#> # ℹ 8 more variables: wind <chr>, habitat <chr>, scientificName <chr>,
#> #   vernacularName <chr>, individualCount <dbl>, time_slot <chr>,
#> #   distance <chr>, flock <chr>
bbs_fetch(target_species = c("烏頭翁", "白頭翁"))
#> # A tibble: 92,475 × 16
#>     year month   day site   locationID decimalLatitude decimalLongitude weather
#>    <dbl> <dbl> <dbl> <chr>  <chr>                <dbl>            <dbl> <chr>  
#>  1  2009     3    10 A02-01 A02-01_01             25.1             122. NA     
#>  2  2009     3    10 A02-01 A02-01_01             25.1             122. NA     
#>  3  2009     4     5 A02-01 A02-01_01             25.1             122. NA     
#>  4  2009     4    26 A02-01 A02-01_01             25.1             122. NA     
#>  5  2009     3    10 A02-01 A02-01_01             25.1             122. NA     
#>  6  2009     4    26 A02-01 A02-01_01             25.1             122. NA     
#>  7  2009     4     5 A02-01 A02-01_01             25.1             122. NA     
#>  8  2009     4    26 A02-01 A02-01_02             25.1             122. NA     
#>  9  2009     3    10 A02-01 A02-01_02             25.1             122. NA     
#> 10  2009     4     5 A02-01 A02-01_02             25.1             122. NA     
#> # ℹ 92,465 more rows
#> # ℹ 8 more variables: wind <chr>, habitat <chr>, scientificName <chr>,
#> #   vernacularName <chr>, individualCount <dbl>, time_slot <chr>,
#> #   distance <chr>, flock <chr>

Finding it hard to choose a specific target species and want to
access the entire dataset for all species? One of the great features of
bbs_fetch() is that you can set
target_species = "全部" to retrieve the entire unfiltered
dataset.

bbs_fetch(target_species = "全部")
#> # A tibble: 373,786 × 16
#>     year month   day site   locationID decimalLatitude decimalLongitude weather
#>    <dbl> <dbl> <dbl> <chr>  <chr>                <dbl>            <dbl> <chr>  
#>  1  2009     3    10 A02-01 A02-01_01             25.1             122. NA     
#>  2  2009     4     5 A02-01 A02-01_01             25.1             122. NA     
#>  3  2009     4     5 A02-01 A02-01_01             25.1             122. NA     
#>  4  2009     4    26 A02-01 A02-01_01             25.1             122. NA     
#>  5  2009     3    10 A02-01 A02-01_01             25.1             122. NA     
#>  6  2009     3    10 A02-01 A02-01_01             25.1             122. NA     
#>  7  2009     4     5 A02-01 A02-01_01             25.1             122. NA     
#>  8  2009     4     5 A02-01 A02-01_01             25.1             122. NA     
#>  9  2009     3    10 A02-01 A02-01_01             25.1             122. NA     
#> 10  2009     4    26 A02-01 A02-01_01             25.1             122. NA     
#> # ℹ 373,776 more rows
#> # ℹ 8 more variables: wind <chr>, habitat <chr>, scientificName <chr>,
#> #   vernacularName <chr>, individualCount <dbl>, time_slot <chr>,
#> #   distance <chr>, flock <chr>
…
